[
    {
        "sekolah_id_enkrip": "9569733B9FF4B438D4F3                                                                                ",
        "npsn": "20362307",
        "kode_wilayah_induk_kecamatan": "030801  ",
        "jumlah_kirim": null,
        "jml_perpus": 1,
        "nama": "SMK AL-HUDA SALAMAN",
        "rombel": null,
        "induk_provinsi": "Prov. Jawa Tengah",
        "pd": null,
        "kode_wilayah_induk_provinsi": "030000  ",
        "status_sekolah": "Swasta",
        "jml_rk": 11,
        "bentuk_pendidikan": "SMK",
        "induk_kabupaten": "Kab. Magelang",
        "sinkron_terakhir": null,
        "induk_kecamatan": "Kec. Salaman",
        "sekolah_id": "2C69F3F7-EE9D-4EEB-9789-8C3934D5B62E",
        "ptk": null,
        "pegawai": null,
        "kode_wilayah_induk_kabupaten": "030800  ",
        "jml_lab": 1
    },
    {
        "sekolah_id_enkrip": "1802B602E5FF00DA9735                                                                                ",
        "npsn": "20307716",
        "kode_wilayah_induk_kecamatan": "030801  ",
        "jumlah_kirim": null,
        "jml_perpus": 1,
        "nama": "SMKS MUHAMMADIYAH SALAMAN",
        "rombel": null,
        "induk_provinsi": "Prov. Jawa Tengah",
        "pd": null,
        "kode_wilayah_induk_provinsi": "030000  ",
        "status_sekolah": "Swasta",
        "jml_rk": 27,
        "bentuk_pendidikan": "SMK",
        "induk_kabupaten": "Kab. Magelang",
        "sinkron_terakhir": null,
        "induk_kecamatan": "Kec. Salaman",
        "sekolah_id": "275F7D80-31BF-497C-B873-4A05F30C849B",
        "ptk": null,
        "pegawai": null,
        "kode_wilayah_induk_kabupaten": "030800  ",
        "jml_lab": 5
    },
    {
        "sekolah_id_enkrip": "F27DA2184E70A0A0C781                                                                                ",
        "npsn": "20341471",
        "kode_wilayah_induk_kecamatan": "030801  ",
        "jumlah_kirim": null,
        "jml_perpus": 1,
        "nama": "SMKS PUTRA BANGSA SALAMAN",
        "rombel": null,
        "induk_provinsi": "Prov. Jawa Tengah",
        "pd": null,
        "kode_wilayah_induk_provinsi": "030000  ",
        "status_sekolah": "Swasta",
        "jml_rk": 15,
        "bentuk_pendidikan": "SMK",
        "induk_kabupaten": "Kab. Magelang",
        "sinkron_terakhir": null,
        "induk_kecamatan": "Kec. Salaman",
        "sekolah_id": "8E373638-0EF9-43E1-9EFD-C53C776009CE",
        "ptk": null,
        "pegawai": null,
        "kode_wilayah_induk_kabupaten": "030800  ",
        "jml_lab": 1
    },
    {
        "sekolah_id_enkrip": "7D9FB88CA26B06599C14                                                                                ",
        "npsn": "20307725",
        "kode_wilayah_induk_kecamatan": "030801  ",
        "jumlah_kirim": null,
        "jml_perpus": 0,
        "nama": "SMKS SATYA PRATAMA SALAMAN",
        "rombel": null,
        "induk_provinsi": "Prov. Jawa Tengah",
        "pd": null,
        "kode_wilayah_induk_provinsi": "030000  ",
        "status_sekolah": "Swasta",
        "jml_rk": 18,
        "bentuk_pendidikan": "SMK",
        "induk_kabupaten": "Kab. Magelang",
        "sinkron_terakhir": null,
        "induk_kecamatan": "Kec. Salaman",
        "sekolah_id": "05A440EC-8497-4454-B411-1D8ABF285BFE",
        "ptk": null,
        "pegawai": null,
        "kode_wilayah_induk_kabupaten": "030800  ",
        "jml_lab": 0
    }
]