{
"results":1,
"id":"sekolah_id",
"start":0,
"limit":20,
"rows":{
"sekolah_id":"a093ea4a-d05d-4e68-a17f-2425065b5efc",
"nama":"SMA NEGERI 1 PATI",
"npsn":"20339021",
"bentuk_pendidikan_id":13,
"bentuk_pendidikan_id_string":"SMA",
"status_sekolah":"1",
"status_sekolah_string":"Negeri",
"alamat_jalan":"JL. P. SUDIRMAN NO. 24 PATI",
"kode_wilayah":"031810AH",
"desa_kelurahan":"Plangitan",
"kecamatan":"Kec. Pati",
"kabupaten_kota":"Kab. Pati",
"provinsi":"Prov. Jawa Tengah"
}
}