{
    "images": [
        "http://foto2.data.kemdikbud.go.id/getImage/20300158/1.jpg",
        "http://foto2.data.kemdikbud.go.id/getImage/20300158/2.jpg",
        "http://foto2.data.kemdikbud.go.id/getImage/20300158/3.jpg",
        "http://foto2.data.kemdikbud.go.id/getImage/20300158/4.jpg",
        "http://foto2.data.kemdikbud.go.id/getImage/20300158/5.jpg",
        "http://foto2.data.kemdikbud.go.id/getImage/20300158/6.jpg",
        "http://foto2.data.kemdikbud.go.id/getImage/20300158/10.jpg"
    ]
}